<svg width="1401px" height="611px" viewBox="0 0 1401 611" version="1.1" xmlns="http://www.w3.org/2000/svg" xmlns:xlink="http://www.w3.org/1999/xlink">
    <g id="Welcome" stroke="none" stroke-width="1" fill="none" fill-rule="evenodd">
        <g id="Desktop-HD" fill="#FFFFFF">
            <path d="M46.7571966,59.879759 C84.8439711,3.02383051 163.758913,6.14925913 274.619033,3.02383051 C385.479153,-0.101598106 431.268453,31.7028941 513.145514,31.7028941 C595.022574,31.7028941 694.473209,-6.68866495 773.030332,1.02383051 C851.587454,8.73632597 925.983554,44.879759 1023.19135,44.879759 C1120.39915,44.879759 1133.4281,22.2599396 1220.10063,22.2599396 C1306.77315,22.2599396 1342.8572,22.2599396 1382.77761,84.7775779 C1422.69803,147.295216 1382.77761,223.351638 1382.77761,305.626989 C1382.77761,387.90234 1417.4599,459.111243 1382.77761,507.023831 C1348.09532,554.936418 1261.98212,581.209443 1147.34971,604.472724 C1032.71729,627.736005 933.191542,579.351887 895.44753,579.351887 C857.703519,579.351887 781.415972,550.671394 688.548964,558.6728 C595.681955,566.674205 565.593197,596.814742 513.145514,596.814742 C460.69783,596.814742 370.764385,564.781479 287.478228,564.781479 C204.192071,564.781479 159.166327,598.098864 74.7808686,564.781479 C-9.60459015,531.464093 -10.2686442,412.286242 13.2955746,344.662453 C36.8597934,277.038665 24.0595197,271.431665 13.2955746,197.183178 C2.53162944,122.93469 8.67042219,116.735687 46.7571966,59.879759 Z" id="Combined-Shape">
              <animateTransform attributeType="XML" attributeName="transform" type="scale" additive="sum" values="1;0.95;1" keyTimes="0;0.5;1" repeatCount="indefinite" begin="0s" dur="8s"></animateTransform>
              <animateTransform attributeType="XML" attributeName="transform" type="translate" additive="sum" values="0 0;30 20;0 0" keyTimes="0;0.5;1" repeatCount="indefinite" begin="0s" dur="8s"></animateTransform>
          </path>
        </g>
    </g>
</svg>
